Markdown
…
library(R.utils)
library(data.table)
library(dplyr)
library(ggplot2)

data <- fread("02_course-project-2_repdata-data-StormData.csv.bz2", sep = ",", header = T)

Questions

1. Across the United States, which types of events are most harmful with respect to population health?

fatalities <- data %>% select(EVTYPE,FATALITIES) %>% group_by(EVTYPE) %>% summarise(sum = sum(FATALITIES)) %>% arrange(-sum)
print(fatalities)

## # A tibble: 985 x 2
##    EVTYPE           sum
##    <chr>          <dbl>
##  1 TORNADO         5633
##  2 EXCESSIVE HEAT  1903
##  3 FLASH FLOOD      978
##  4 HEAT             937
##  5 LIGHTNING        816
##  6 TSTM WIND        504
##  7 FLOOD            470
##  8 RIP CURRENT      368
##  9 HIGH WIND        248
## 10 AVALANCHE        224
## #  with 975 more rows

Total number of fatalities caused by each type of Event.

injuries <- data %>% select(EVTYPE,INJURIES) %>% group_by(EVTYPE) %>% summarise(sum = sum(INJURIES)) %>% arrange(-sum)
print(injuries)

## # A tibble: 985 x 2
##    EVTYPE              sum
##    <chr>             <dbl>
##  1 TORNADO           91346
##  2 TSTM WIND          6957
##  3 FLOOD              6789
##  4 EXCESSIVE HEAT     6525
##  5 LIGHTNING          5230
##  6 HEAT               2100
##  7 ICE STORM          1975
##  8 FLASH FLOOD        1777
##  9 THUNDERSTORM WIND  1488
## 10 HAIL               1361
## #  with 975 more rows
…
temp <- data %>% group_by(EVTYPE) %>% summarise(sum = sum(PROPDMG,CROPDMG)) %>% arrange(-sum)
print(temp)

## # A tibble: 985 x 2
##    EVTYPE                     sum
##    <chr>                    <dbl>
##  1 FLOOD             150319678250
##  2 HURRICANE/TYPHOON  71913712800
##  3 TORNADO            57352113590
##  4 STORM SURGE        43323541000
##  5 HAIL               18758221670
##  6 FLASH FLOOD        17562128610
##  7 DROUGHT            15018672000
##  8 HURRICANE          14610229010
##  9 RIVER FLOOD        10148404500
## 10 ICE STORM           8967041310
## #  with 975 more rows
…
